<svg version="1.1" id="Layer_1" xmlns="http://www.w3.org/2000/svg" x="0px" y="0px"
	 viewBox="0 0 650 650">
<style type="text/css">
	.st0{fill:#FFFFFF;}
</style>
<path d="M325,650L325,650C145.51,650,0,504.49,0,325v0C0,145.51,145.51,0,325,0h0c179.49,0,325,145.51,325,325v0
	C650,504.49,504.49,650,325,650z"/>
<g>
	<g>
		<path d="M146.5,522.62c-27.44-0.59-52.81-20.08-60.4-46.36c-6.34-20.79-3-41.48,9.42-58.28c10.24-13.86,25.72-23.36,43.06-26.85
			c-15.34-43.96-15.36-88.24-0.05-132.11c-12.51-0.83-25.69-3.65-37.95-14.5c-21.75-17.29-29.86-45.63-20.64-72.36
			c9.38-27.2,33.67-44.78,61.89-44.78l0.62,0h357.14c10.25,0,19.19,1.73,27.37,5.28c24.56,10.47,41.06,35.76,40.08,61.52
			c-0.48,32.74-23.43,58.4-55.41,64.29c7.4,21.12,11.28,43.55,11.33,65.94c0.04,22.51-3.79,45.08-11.18,66.33
			c11.85,1,24.73,3.74,35.92,13.12c22.85,17.05,31.75,45.87,22.68,73.59c-8.98,27.44-33.11,45.17-61.46,45.18L146.5,522.62z
			 M144.16,435.41c-9.58,2.18-14.41,10.35-15.75,17.39c-0.64,3.37-1.92,14.88,8.53,21.52l0.3,0.19l0.29,0.21
			c3.28,2.31,7.32,3.38,12.71,3.38h0.18c11.19-0.05,27.72-0.08,49.21-0.08c-14.86-12.26-27.8-26.49-38.71-42.6H144.16z M445.26,478
			c-2.28-6.57-3.52-13.4-3.63-20.27c-0.13-7.7,1.1-15.28,3.63-22.55c-10.6,0.01-21.35,0.06-31.77,0.11
			c-11.12,0.05-22.62,0.11-33.95,0.11c-24.86,0-44.01-0.27-62.12-0.86l-0.23-0.01c-37.88-1.82-74.59-26.63-91.39-61.74
			c-11.87-24.08-14.19-51.81-6.52-78.1c3.73-12.8,9.66-24.73,17.42-35.28h-50.57c-32.03,68.89-7.9,154.62,56.24,194.65
			c23.78,15,50,23.27,75.9,23.94H445.26z M507.8,435.63c-2.17,0-21.17,0.58-21.23,20.66c-0.02,6.51,1.83,11.69,5.52,15.39
			c3.78,3.79,9.46,5.96,15.58,5.96c9.63,0,21.02-5.48,21.69-20.87C528.34,436.66,511.24,435.63,507.8,435.63z M324.09,259.5
			c-44.88,1.93-64.36,34.6-63.74,66.21c0.6,30.98,20.75,64.31,63.58,64.32c0.01,0,0.8,0,1.2-0.01c44.74-0.64,64.73-33,64.7-64.78
			C389.79,293.01,369.45,260.24,324.09,259.5z M464.04,389.79c16.24-34.23,18.64-74.6,6.41-112.13
			c-13.17-40.42-41.98-73.51-79.04-90.79c-19.22-9.07-39.63-14.14-59.09-14.71l-5.5,0c-15.16,0-30.56-0.07-45.45-0.14
			c-14.86-0.07-30.22-0.14-45.31-0.14c-11.3,0-21.57,0.04-31.19,0.12c2.12,6.11,3.32,12.45,3.57,18.91
			c0.31,8.09-0.92,16.1-3.61,23.84c5.74-0.03,12.14-0.07,19.05-0.11c15.63-0.1,33.36-0.21,50.26-0.21c51.42,0,64.12,1.1,69.51,2.18
			c14.54,2.71,26.83,7.26,37.58,13.9c32.62,19.72,52.71,53.89,53.77,91.43c0.69,24.64-6.84,48.32-20.96,67.84H464.04z
			 M491.79,214.69c1.94,0.05,3.77,0.09,5.55,0.09c6.72,0,10.5-0.72,13.49-2.55l0.21-0.13l0.21-0.12
			c8.98-5.12,12.62-13.27,10.52-23.58c-1.88-9.25-11.12-16.49-21.02-16.49l-0.19,0c-11.34,0.11-28.16,0.16-50,0.17
			c14.64,12.17,27.57,26.38,38.68,42.56C490.11,214.64,490.95,214.67,491.79,214.69z M120.78,192.96
			c0.3,15.7,11.94,21.28,21.88,21.28c0,0,0,0,0,0c3.49,0,20.89-1,20.95-20.8c0.02-6.42-1.8-11.51-5.41-15.14
			c-3.73-3.74-9.38-5.88-15.5-5.88C133.03,172.42,121.53,177.81,120.78,192.96z"/>
		<path class="st0" d="M141.82,142.38c0.21,0,0.41,0,0.62,0h357.14c0.01,0,0.02,0,0.04,0c7.43,0,14.51,1.06,21.35,4.04
			c18.47,7.87,31.9,27.2,31.06,47.36c-0.35,31.21-25.34,50.97-54.58,50.97c-2.62,0-5.28-0.16-7.95-0.48
			c24.5,50.57,24.59,109.77,0.35,160.37c16.78,1.24,34.79-0.8,48.53,10.98c38.66,28.36,18.92,91.99-29.47,92H146.82
			c-20.9-0.45-40.62-15.6-46.34-35.63c-11.25-36.64,17.35-67.34,53.04-67.35c2.24,0,4.51,0.12,6.8,0.37
			c-24.57-53.81-24.41-106.95,0.18-160.36c-18.26-0.87-35.42,1.75-50.28-11.62C72.66,203.64,94.64,142.38,141.82,142.38
			 M192.17,229.79c18.91,0,51.77-0.36,81.97-0.36c31.05,0,59.27,0.38,66.64,1.9c11.59,2.15,22.59,5.76,32.63,11.98
			c60.59,36.58,62.35,121.6,3.97,161.47h95.82c45.68-82.69,10.15-191.62-75.45-231.52c-20.26-9.56-42.78-15.5-65.21-16.12
			c-1.9,0-3.8,0-5.71,0c-30.25,0-60.52-0.28-90.77-0.28c-19.03,0-38.05,0.11-57.06,0.47c17.35,19.48,21.21,47.48,0.01,72.32
			C181.68,229.76,186.25,229.79,192.17,229.79 M449.17,157.07c-25.95,0-49.57-0.07-50.4-0.07c34.75,16.17,62.03,40.45,82.44,72.68
			c1.41-0.07,2.83-0.09,4.24-0.09c3.96,0,7.94,0.2,11.88,0.2c7.44,0,14.72-0.7,21.34-4.77c14.58-8.31,21.18-22.99,17.8-39.6
			c-3.38-16.59-19.01-28.5-35.72-28.5c-0.11,0-0.22,0-0.33,0C486.98,157.03,467.49,157.07,449.17,157.07 M142.66,229.25
			c18.02,0,35.88-11.88,35.96-35.76c0.08-24.07-17.83-36.07-35.91-36.07c-17.93,0-36.03,11.8-36.93,35.32
			C105.98,217.04,124.4,229.25,142.66,229.25 M274.08,244.4h-97.2c-41.3,76.63-16.74,176.01,57.55,222.38
			c25.03,15.79,53.98,25.48,83.65,26.21h150.05c0.93,0,1.85-0.18,3.03-0.31c-18.51-20.47-20.28-49.29,0.09-72.41
			c-7.99-0.07-15.98-0.1-23.96-0.1c-22.59,0-45.16,0.21-67.74,0.21c-20.54,0-41.08-0.18-61.64-0.85
			c-33.26-1.6-64.38-23.47-78.62-53.31C217.97,323.08,234.07,270.4,274.08,244.4 M323.92,405.02c0.47,0,0.94,0,1.41-0.01
			c106.61-1.52,105.83-159.19-1.44-160.52C215.51,248.72,222.84,405.02,323.92,405.02 M150.25,493.09c0.08,0,0.16,0,0.24,0
			c14.84-0.06,37.15-0.08,57.03-0.08c23.23,0,43.12,0.02,43.91,0.02c-34.68-16.32-62.35-40.37-82.36-72.62h-25.7
			c-0.45,0-0.91,0.01-1.34,0.12c-31.09,5.98-39.96,49.41-13.13,66.44C135.25,491.44,142.46,493.09,150.25,493.09 M507.66,492.64
			c17.96,0,36.02-11.93,36.7-35.93c-0.9-24.32-18.77-36.07-36.57-36.07c-18.11,0-36.15,12.15-36.23,35.6
			C471.48,480.46,489.52,492.64,507.66,492.64 M141.82,112.38c-17.89,0-34.69,5.67-48.6,16.4c-12.65,9.76-22.15,23.07-27.47,38.5
			c-11.28,32.71-1.39,67.43,25.19,88.75c9.2,8.05,18.85,12.54,28.19,15.05c-9.71,36.62-9.51,73.45,0.62,110.12
			c-14.44,5.85-27.08,15.41-36.3,27.87c-15.06,20.38-19.34,46.41-11.74,71.46c4.56,15.71,14.48,30.05,27.95,40.41
			c13.53,10.41,30.05,16.33,46.51,16.68l0.32,0.01h0.32H508.9c18.09,0,34.95-5.76,48.79-16.64c12.52-9.85,21.83-23.29,26.93-38.87
			c5.15-15.74,5.58-32.31,1.24-47.92c-4.69-16.86-14.66-31.4-28.86-42.1c-8.36-6.92-17.26-10.92-25.96-13.29
			c4.59-17.75,6.95-36.1,6.91-54.41c-0.04-18.78-2.59-37.59-7.49-55.74c9.23-3.6,17.71-8.73,25.04-15.25
			c16.73-14.87,26.14-35.75,26.52-58.82c0.57-16-4.03-31.81-13.32-45.73c-8.81-13.21-21.55-23.86-35.87-29.98
			c-10.08-4.36-20.94-6.48-33.21-6.48H142.59C142.33,112.38,142.08,112.38,141.82,112.38L141.82,112.38z M223.23,186.9
			c4.13-0.01,8.4-0.02,12.83-0.02c15.06,0,30.41,0.07,45.25,0.14c14.91,0.07,30.33,0.14,45.52,0.14c1.76,0,3.52,0,5.28,0
			c17.35,0.54,35.61,5.12,52.84,13.25l0.06,0.03l0.06,0.03c33.31,15.52,59.23,45.35,71.12,81.84c10.03,30.8,9.19,63.65-2.01,92.49
			h-14.44c7.17-16.55,10.76-34.66,10.24-53.26c-0.57-20.42-6.18-40.55-16.23-58.19c-10.53-18.51-25.99-34.28-44.69-45.6
			c-12.3-7.6-26.22-12.78-42.54-15.83c-6.23-1.25-17.54-2.46-72.39-2.46c-16.95,0-34.7,0.11-50.36,0.21c-0.18,0-0.36,0-0.54,0
			c0.24-3.08,0.31-6.19,0.19-9.31C223.39,189.19,223.32,188.04,223.23,186.9L223.23,186.9z M486.96,187
			c5.22-0.02,9.81-0.06,13.75-0.09c2.78,0,5.91,2.22,6.37,4.49c0.88,4.35-0.34,5.9-3.25,7.56l-0.43,0.24l-0.27,0.16
			c-0.38,0.11-1.78,0.43-5.79,0.43c-0.08,0-0.16,0-0.24,0C493.85,195.37,490.47,191.11,486.96,187L486.96,187z M135.79,193.2
			c0.14-2.33,0.84-5.78,6.92-5.78c2.35,0,4.14,0.74,4.87,1.47c0.94,0.95,1.04,3.46,1.03,4.5c-0.01,2.74-0.02,5.85-5.96,5.85
			C136.44,199.25,135.86,195.74,135.79,193.2L135.79,193.2z M196.06,274.4h14.7c-2.3,5.2-4.27,10.57-5.88,16.08
			c-8.71,29.88-6.07,61.42,7.43,88.85c9.32,19.45,23.92,36.35,42.21,48.89c18.8,12.88,40.22,20.24,61.95,21.28l0.23,0.01l0.23,0.01
			c18.28,0.6,37.59,0.87,62.62,0.87c11.35,0,22.86-0.05,33.99-0.11c4.4-0.02,8.85-0.04,13.33-0.06c-0.2,2.57-0.29,5.15-0.24,7.75
			c0.03,1.68,0.11,3.35,0.25,5.02H318.47c-23.13-0.64-46.65-8.1-68.03-21.59l-0.06-0.04l-0.06-0.04
			C195.17,406.91,172.88,334.94,196.06,274.4L196.06,274.4z M323.92,375.02c-37.58,0-48.22-31.18-48.58-49.6
			c-0.16-8.13,1.47-48.63,48.94-50.92c37.25,0.82,50.51,27.78,50.53,50.74c0.02,22.63-13.04,49.24-49.91,49.77
			C324.58,375.02,324.25,375.02,323.92,375.02L323.92,375.02z M146.45,450.41h6.68c3.18,4.35,6.51,8.56,9.98,12.64
			c-4.82,0.01-9.08,0.03-12.76,0.04l-0.11,0c-0.95,0-3.25-0.06-4.08-0.65l-0.59-0.41l-0.6-0.38c-2.2-1.4-2.21-4.06-1.84-6.05
			C143.38,454.32,144.16,451.56,146.45,450.41L146.45,450.41z M507.66,462.64c-2.36,0-4.19-0.78-4.96-1.55
			c-1.01-1.01-1.15-3.41-1.14-4.75c0.01-2.13,0.02-5.71,6.23-5.71c5.34,0,6.31,2.84,6.54,6.22
			C514.18,459.37,513.38,462.64,507.66,462.64L507.66,462.64z"/>
	</g>
</g>
</svg>
